inverter;nominal_power_kw;efficiency;JA Solar JAM60S01-315/PR;JA Solar JAM60S01-310/PR;serial_number;model;register_date;expiration_date
G.101.1;36;0.985;136;0;9035KMTL193R0040;Goodwe GW35KLV-MT;11.14.2019;-
G.101.2;36;0.985;136;0;9035KMTL193R0039;Goodwe GW35KLV-MT;11.14.2019;-
G.101.3;36;0.985;136;0;9035KMTL193R0006;Goodwe GW35KLV-MT;11.14.2019;-
G.104.1;36;0.985;0;142;9035KMTL193R0016;Goodwe GW35KLV-MT;11.09.2019;-
G.104.2;36;0.985;0;142;9035KMTL193R0017;Goodwe GW35KLV-MT;11.09.2019;-
G.105.1;36;0.985;0;140;9035KMTL193R0041;Goodwe GW35KLV-MT;11.08.2019;-
G.108.1;30;0.983;107;0;9030KMTL197R0031;Goodwe GW30KLV-MT;11.14.2019;-
G.108.2;30;0.983;107;0;9030KMTL197R0033;Goodwe GW30KLV-MT;11.14.2019;-
G.109.1;30;0.983;107;0;9030KMTL197R0015;Goodwe GW30KLV-MT;11.14.2019;-
G.109.2;30;0.983;107;0;9030KMTL197R0028;Goodwe GW30KLV-MT;11.14.2019;-
G.112.1;30;0.983;116;0;9030KMTL197R0035;Goodwe GW30KLV-MT;11.14.2019;-
G.112.2;36;0.985;136;0;9035KMTL193R0018;Goodwe GW35KLV-MT;11.14.2019;-
G.112.3;36;0.985;135;0;9035KMTL193R0005;Goodwe GW35KLV-MT;11.14.2019;-
G.116.1;30;0.983;14;108;9030KMTL197R0004;Goodwe GW30KLV-MT;11.06.2019;-
G.116.2;30;0.983;14;108;9030KMTL197R0038;Goodwe GW30KLV-MT;11.06.2019;-
G.116.3;36;0.985;136;0;9035KMTL197R0012;Goodwe GW35KLV-MT;11.06.2019;-
G.122.1;30;0.983;0;121;9030KMTL193R9014;Goodwe GW30KLV-MT;11.09.2019;-
G.122.2;30;0.983;0;121;9030KMTL193R9004;Goodwe GW30KLV-MT;11.09.2019;-
G.13.1;30;0.983;0;120;9030KMTL193R9007;Goodwe GW30KLV-MT;08.31.2019;-
G.13.2;36;0.985;0;132;9035KMTL193R0029;Goodwe GW35KLV-MT;08.31.2019;-
G.136.1;36;0.985;135;0;9035KMTL197R0019;Goodwe GW35KLV-MT;06.02.2020;-
G.136.2;36;0.985;135;0;9035KMTL197R0001;Goodwe GW35KLV-MT;06.02.2020;-
G.140.1;30;0.983;0;115;9030KMTL193R9011;Goodwe GW30KLV-MT;11.09.2019;-
G.140.2;30;0.983;0;115;9030KMTL193R9008;Goodwe GW30KLV-MT;11.09.2019;-
G.140.3;30;0.983;0;115;9030KMTL193R9016;Goodwe GW30KLV-MT;11.09.2019;-
G.156.1;30;0.983;0;112;9030KMTL197R0001;Goodwe GW30KLV-MT;11.08.2019;-
G.156.2;30;0.983;0;112;9030KMTL197R0002;Goodwe GW30KLV-MT;11.08.2019;-
G.157.1;30;0.983;96;0;9030KMTL197R0010;Goodwe GW30KLV-MT;11.05.2019;-
G.157.2;30;0.983;99;0;9030KMTL197R0022;Goodwe GW30KLV-MT;11.05.2019;-
G.161.1;36;0.985;0;135;9035KMTL197R0026;Goodwe GW35KLV-MT;06.02.2020;-
G.161.2;36;0.985;0;135;9035KMTL197R0016;Goodwe GW35KLV-MT;06.02.2020;-
G.162.1;35;0.983;132;0;9035KMTL193R0002;Goodwe GW35KLV-MT;11.24.2020;-
G.17.1;30;0.983;0;120;9030KMTL193R9018;Goodwe GW30KLV-MT;11.12.2019;-
G.17.2;36;0.985;0;136;9035KMTL193R0034;Goodwe GW35KLV-MT;11.12.2019;-
G.18.1;36;0.985;136;0;9035KMTL193R0043;Goodwe GW35KLV-MT;11.13.2019;-
G.18.2;36;0.985;134;0;9035KMTL193R0036;Goodwe GW35KLV-MT;11.13.2019;-
G.31.1;36;0.985;0;140;9035KMTL193R0022;Goodwe GW35KLV-MT;11.25.2019;-
G.38.1;36;0.985;136;0;9035KMTL193R0012;Goodwe GW35KLV-MT;11.12.2019;-
G.38.2;36;0.985;137;0;9035KMTL193R0011;Goodwe GW35KLV-MT;11.12.2019;-
G.40.1;30;0.983;0;119;9030KMTL197R0042;Goodwe GW30KLV-MT;11.07.2019;-
G.40.2;36;0.985;0;142;9035KMTL197R0031;Goodwe GW35KLV-MT;11.07.2019;-
G.40.3;36;0.985;0;142;9035KMTL197R0008;Goodwe GW35KLV-MT;11.07.2019;-
G.42A.1;36;0.985;0;142;9035KMTL197R0013;Goodwe GW35KLV-MT;11.08.2019;-
G.42A.2;36;0.985;0;142;9035KMTL197R0024;Goodwe GW35KLV-MT;11.08.2019;-
G.42A.3;36;0.985;0;142;9035KMTL197R0004;Goodwe GW35KLV-MT;11.08.2019;-
G.42B.1;36;0.985;0;142;9035KMTL193R0007;Goodwe GW35KLV-MT;11.09.2019;-
G.42B.2;36;0.985;0;142;9035KMTL193R0024;Goodwe GW35KLV-MT;11.09.2019;-
G.43.1;36;0.985;135;0;9035KMTL197R0006;Goodwe GW35KLV-MT;11.09.2019;-
G.43.2;36;0.985;135;0;9035KMTL197R0029;Goodwe GW35KLV-MT;11.09.2019;-
G.43.3;36;0.985;136;0;9035KMTL197R0021;Goodwe GW35KLV-MT;11.09.2019;-
G.44.1;36;0.985;139;0;9035KMTL197R0022;Goodwe GW35KLV-MT;11.20.2020;-
G.44.10;36;0.985;139;0;9035KMTL197R0011;Goodwe GW35KLV-MT;11.20.2020;-
G.44.2;36;0.985;139;0;9035KMTL197R0030;Goodwe GW35KLV-MT;11.20.2020;-
G.44.3;36;0.985;139;0;9035KMTL197R0015;Goodwe GW35KLV-MT;11.20.2020;-
G.44.4;36;0.985;139;0;9035KMTL197R0023;Goodwe GW35KLV-MT;11.20.2020;-
G.44.5;36;0.985;139;0;9035KMTL197R0025;Goodwe GW35KLV-MT;11.20.2020;-
G.44.6;36;0.985;139;0;9035KMTL197R0005;Goodwe GW35KLV-MT;11.20.2020;-
G.44.7;36;0.985;139;0;9035KMTL193R0019;Goodwe GW35KLV-MT;11.20.2020;-
G.44.8;36;0.985;139;0;9035KMTL197R0002;Goodwe GW35KLV-MT;11.20.2020;-
G.44.9;36;0.985;139;0;9035KMTL197R0027;Goodwe GW35KLV-MT;11.20.2020;-
G.45.1;36;0.985;0;142;9035KMTL197R0009;Goodwe GW35KLV-MT;07.05.2020;-
G.45.2;36;0.985;0;142;9035KMTL197R0018;Goodwe GW35KLV-MT;07.05.2020;-
G.45.3;36;0.985;0;141;9035KMTL197R0028;Goodwe GW35KLV-MT;07.05.2020;-
G.46.1;30;0.983;0;120;9030KMTL197R0040;Goodwe GW30KLV-MT;11.12.2019;-
G.46.2;30;0.983;0;120;9030KMTL197R0037;Goodwe GW30KLV-MT;11.12.2019;-
G.51.1;36;0.985;0;134;9035KMTL193R0021;Goodwe GW35KLV-MT;11.13.2019;-
G.52.1;36;0.985;0;136;9035KMTL193R0028;Goodwe GW35KLV-MT;11.13.2019;-
G.52.2;36;0.985;0;136;9035KMTL193R0014;Goodwe GW35KLV-MT;11.13.2019;-
G.52.3;36;0.985;0;136;9035KMTL193R0015;Goodwe GW35KLV-MT;11.13.2019;-
G.53.1;36;0.985;0;136;9035KMTL213W0005;Goodwe GW35KLV-MT;11.07.2019;-
G.53.2;36;0.985;0;136;9035KMTL193R0008;Goodwe GW35KLV-MT;11.07.2019;-
G.53.3;36;0.985;0;136;9035KMTL193R0037;Goodwe GW35KLV-MT;11.07.2019;-
G.54.1;36;0.985;0;137;9035KMTL193R0020;Goodwe GW35KLV-MT;11.12.2019;-
G.54.2;30;0.983;0;119;9030KMTL193R9003;Goodwe GW30KLV-MT;11.12.2019;-
G.58.1;30;0.983;121;0;9030KMTL197R0019;Goodwe GW30KLV-MT;11.12.2019;-
G.59.1;36;0.985;135;0;9035KMTL193R0031;Goodwe GW35KLV-MT;11.12.2019;-
G.64.1;30;0.983;0;105;9030KMTL197R0016;Goodwe GW30KLV-MT;11.12.2019;-
G.64.2;30;0.983;0;105;9030KMTL197R0017;Goodwe GW30KLV-MT;11.12.2019;-
G.66.1;30;0.983;119;0;9030KMTL197R0012;Goodwe GW30KLV-MT;11.12.2019;-
G.66.2;36;0.985;139;0;9035KMTL193R0027;Goodwe GW35KLV-MT;11.12.2019;-
G.66.3;36;0.985;139;0;9035KMTL193R0010;Goodwe GW35KLV-MT;11.12.2019;-
G.67.1;36;0.985;139;0;9035KMTL193R0003;Goodwe GW35KLV-MT;11.12.2019;-
G.67.2;36;0.985;139;0;9035KMTL193R0009;Goodwe GW35KLV-MT;11.12.2019;-
G.67.3;36;0.985;140;0;9035KMTL193R0025;Goodwe GW35KLV-MT;11.12.2019;-
G.67.4;36;0.985;140;0;9035KMTL193R0004;Goodwe GW35KLV-MT;11.12.2019;-
G.69.1;30;0.983;0;122;9030KMTL193R9015;Goodwe GW30KLV-MT;11.08.2019;-
G.69.2;36;0.985;0;143;9035KMTL193R0035;Goodwe GW35KLV-MT;11.08.2019;-
G.69.3;36;0.985;0;143;9035KMTL193R0023;Goodwe GW35KLV-MT;11.08.2019;-
G.72.1;30;0.983;108;0;9030KMTL197R0020;Goodwe GW30KLV-MT;11.14.2019;-
G.72.2.A;30;0.983;102;0;9030KMTL197R0030;Goodwe GW30KLV-MT;11.14.2019;08.17.2022
G.72.2;30;0.983;102;0;G035KMTL19CW0003;Goodwe GW30KLV-MT;08.18.2022;-
G.73.1;30;0.983;108;0;9030KMTL197R0009;Goodwe GW30KLV-MT;11.14.2019;-
G.73.2;30;0.983;104;0;9030KMTL197R0021;Goodwe GW30KLV-MT;11.14.2019;-
G.74.1;30;0.983;116;0;9030KMTL193R9017;Goodwe GW30KLV-MT;11.15.2019;-
G.74.2;30;0.983;116;0;9030KMTL193R9013;Goodwe GW30KLV-MT;11.15.2019;-
G.74.3;30;0.983;116;0;9030KMTL193R9006;Goodwe GW30KLV-MT;11.15.2019;-
G.74.4;30;0.983;116;0;9030KMTL193R9012;Goodwe GW30KLV-MT;11.15.2019;-
G.74.5;30;0.983;116;0;9030KMTL197R0013;Goodwe GW30KLV-MT;11.15.2019;-
G.76.1;30;0.983;116;0;9030KMTL193R9002;Goodwe GW30KLV-MT;11.15.2019;-
G.76.2.A;30;0.983;116;0;9030KMTL193R9005;Goodwe GW30KLV-MT;11.15.2019;01.20.2022
G.76.2;30;0.983;116;0;9030KMTL197R0030;Goodwe GW30KLV-MT;01.21.2022;-
G.76.3;30;0.983;116;0;9030KMTL193R9001;Goodwe GW30KLV-MT;11.15.2019;-
G.76.4;30;0.983;116;0;9030KMTL193R9009;Goodwe GW30KLV-MT;11.15.2019;-
G.76.5;30;0.983;116;0;9030KMTL193R9010;Goodwe GW30KLV-MT;11.15.2019;-
G.78.1;36;0.985;136;0;9035KMTL197R0010;Goodwe GW35KLV-MT;11.09.2019;-
G.8.1;36;0.985;0;141;9035KMTL193R0044;Goodwe GW35KLV-MT;11.25.2019;-
G.8.2.A;36;0.985;0;141;9035KMTL193R0045;Goodwe GW35KLV-MT;11.25.2019;01.20.2022
G.8.2;36;0.985;0;141;9035KMTL193R0038;Goodwe GW35KLV-MT;01.21.2022;-
G.8.3.A;36;0.985;0;140;9035KMTL193R0046;Goodwe GW35KLV-MT;11.25.2019;01.20.2022
G.8.3;36;0.985;0;140;9035KMTL214W0009;Goodwe GW35KLV-MT;01.21.2022;-
G.84.1;30;0.983;0;101;9030KMTL197R0003;Goodwe GW30KLV-MT;11.05.2019;-
G.84.2;30;0.983;0;101;9030KMTL197R0011;Goodwe GW30KLV-MT;11.05.2019;-
G.86.1;36;0.985;134;0;9035KMTL197R0003;Goodwe GW35KLV-MT;11.14.2019;-
G.87.1;30;0.983;116;0;9030KMTL197R0039;Goodwe GW30KLV-MT;11.19.2019;-
G.87.2;30;0.983;116;0;9030KMTL197R0014;Goodwe GW30KLV-MT;11.19.2019;-
G.87.3;30;0.983;116;0;9030KMTL197R0041;Goodwe GW30KLV-MT;11.19.2019;-
G.87.4;30;0.983;116;0;9030KMTL197R0036;Goodwe GW30KLV-MT;11.19.2019;-
G.87.5;30;0.983;116;0;9030KMTL197R0025;Goodwe GW30KLV-MT;11.19.2019;-
G.88.1;36;0.985;134;0;9035KMTL197R0007;Goodwe GW35KLV-MT;11.14.2019;-
G.89.1;36;0.985;134;0;9035KMTL197R0014;Goodwe GW35KLV-MT;11.25.2019;-
G.92.1;36;0.985;136;0;9035KMTL193R0001;Goodwe GW35KLV-MT;11.25.2019;-
G.92.2;36;0.985;136;0;9035KMTL193R0032;Goodwe GW35KLV-MT;11.23.2019;-
G.92.3;36;0.985;139;0;9035KMTL193R0033;Goodwe GW35KLV-MT;11.23.2019;-
G.93.1;36;0.985;136;0;9035KMTL193R0030;Goodwe GW35KLV-MT;11.08.2019;-
G.93.2;36;0.985;136;0;9035KMTL193R0042;Goodwe GW35KLV-MT;11.08.2019;-
G.93.3.A;36;0.985;140;0;9035KMTL193R0026;Goodwe GW35KLV-MT;11.08.2019;01.17.2022
G.93.3;36;0.985;140;0;9060KMTS199W0023;Goodwe GW35KLV-MT;01.18.2022;-
G.97.1;30;0.983;100;0;9030KMTL197R0024;Goodwe GW30KLV-MT;11.24.2020;-
G.97.2;30;0.983;100;0;9030KMTL197R0008;Goodwe GW30KLV-MT;11.24.2020;-
G.99.1;36;0.985;0;125;9035KMTL193R0013;Goodwe GW35KLV-MT;10.30.2019;-
M.2.1;30;0.983;110;0;9030KMTL197R0006;Goodwe GW30KLV-MT;11.26.2019;-
M.2.2;30;0.983;110;0;9030KMTL197R0007;Goodwe GW30KLV-MT;11.26.2019;-
M.2.3;30;0.983;110;0;9030KMTL197R0034;Goodwe GW30KLV-MT;11.26.2019;-
M.2.4;30;0.983;109;0;9030KMTL197R0032;Goodwe GW30KLV-MT;11.26.2019;-
M.20.1;30;0.983;117;0;9030KMTL197R0018;Goodwe GW30KLV-MT;11.27.2019;-
M.20.2;30;0.983;118;0;9030KMTL197R0029;Goodwe GW30KLV-MT;11.27.2019;-
M.3.1;36;0.985;140;0;9035KMTL197R0020;Goodwe GW35KLV-MT;11.26.2019;-
M.7.1;36;0.985;140;0;9035KMTL197R0017;Goodwe GW35KLV-MT;11.26.2019;-
M.9.1;30;0.983;112;0;9030KMTL197R0026;Goodwe GW30KLV-MT;11.26.2019;-
M.9.2;30;0.983;112;0;9030KMTL197R0027;Goodwe GW30KLV-MT;11.26.2019;-
M.9.3;30;0.983;112;0;9030KMTL197R0005;Goodwe GW30KLV-MT;11.26.2019;-
M.9.4;30;0.983;113;0;9030KMTL197R0023;Goodwe GW30KLV-MT;11.26.2019;-
