;hour;cluster;n;loc;scale;density;aic;ks_approved;a;b;c;d;df;K;dfn;dfd;mu;p;kappa;s;k;h;nu;nc;skew;lam;beta;m;chi;variable
0;6;holidays;;603.1468451547623;68.58932037379208;johnsonsu;2699.2394155625097;True;0.24569470997766085;1.3508264834450805;;;;;;;;;;;;;;;;;;;;load_kwh
1;6;not_winter;;842.099999994218;129.9574012026194;laplace_asymmetric;3420.4059106600525;True;;;;;;;;;;;0.7780600039023206;;;;;;;;;;;load_kwh
2;6;vacation;;561.3854046526565;391.6823593989894;kappa4;1755.1895534061039;True;;;;;;;;;;;;;0.4281117647888599;1.2021171159992414;;;;;;;;load_kwh
3;6;winter;;597.2174734872938;258.262250634289;argus;997.0834753127192;True;;;;;;;;;;;;;;;;;;;;;0.9992391383612471;load_kwh
4;7;holidays;;537.684452660737;63.57572635406227;johnsonsu;2798.3385019209118;True;-0.19811979756790005;1.1105306273964508;;;;;;;;;;;;;;;;;;;;load_kwh
5;7;not_winter;;-119.69724978473553;1741.894021364067;weibull_min;3788.175229024917;True;;;5.074185979623678;;;;;;;;;;;;;;;;;;;load_kwh
6;7;vacation;;723.7999999999998;1335.4000000000003;powerlaw;1946.3924435469307;True;0.6410854888679136;;;;;;;;;;;;;;;;;;;;;load_kwh
7;7;winter;;817.9402900539457;202.20514821582069;rayleigh;1158.7538112642474;True;;;;;;;;;;;;;;;;;;;;;;load_kwh
8;8;holidays;;583.6799999999998;107.1044579439621;dgamma;2999.4397701502667;True;0.8816008679821195;;;;;;;;;;;;;;;;;;;;;load_kwh
9;8;not_winter;;2107.792182387342;527.6970560687233;pearson3;3958.21414073332;True;;;;;;;;;;;;;;;;;-0.8150670349769837;;;;;load_kwh
10;8;vacation;;931.6999999999999;1636.6000000000006;powerlaw;2021.5447031194194;True;0.7529026191752616;;;;;;;;;;;;;;;;;;;;;load_kwh
11;8;winter;;1094.293940918144;1244.6440180702712;triang;1275.616867335744;True;;;0.12469915644788399;;;;;;;;;;;;;;;;;;;load_kwh
12;9;holidays;;569.3809698677032;95.83988014155175;johnsonsu;3096.1238526080897;True;-0.6642375555990943;1.0466161951489588;;;;;;;;;;;;;;;;;;;;load_kwh
13;9;not_winter;;2380.0645152272955;699.9579745715511;genextreme;4065.543484893783;True;;;0.5126973798293494;;;;;;;;;;;;;;;;;;;load_kwh
14;9;vacation;;946.6187114819143;2328.6252013289054;johnsonsb;2090.856626527573;True;0.3050446494809093;0.8830423299729293;;;;;;;;;;;;;;;;;;;;load_kwh
15;9;winter;;1253.6752945815879;1641.4473766530496;triang;1329.4752351184907;True;;;0.17784591182734066;;;;;;;;;;;;;;;;;;;load_kwh
16;10;holidays;;667.1999999999998;160.3973090316933;dgamma;3133.3104184177123;True;0.7890380542264186;;;;;;;;;;;;;;;;;;;;;load_kwh
17;10;not_winter;;2539.3061647568065;764.3941198584298;genextreme;4115.619607982233;True;;;0.5007549077467265;;;;;;;;;;;;;;;;;;;load_kwh
18;10;vacation;;995.6137136800683;2551.9473394371944;triang;2108.8639177482573;True;;;0.2583071665067136;;;;;;;;;;;;;;;;;;;load_kwh
19;10;winter;;1455.36;1508.1600000000003;powerlaw;1330.0782623466096;True;0.6329190551477293;;;;;;;;;;;;;;;;;;;;;load_kwh
20;11;holidays;;566.4528643092685;107.94174366279378;nct;3143.8004657157744;True;;;;;2.7997152775111047;;;;;;;;;;;1.0451706696491767;;;;;;load_kwh
21;11;not_winter;;2502.966235419636;756.5132265520123;genextreme;4112.855387640218;True;;;0.49248832948843047;;;;;;;;;;;;;;;;;;;load_kwh
22;11;vacation;;915.1612256524153;2686.905373781837;triang;2115.4027843776807;True;;;0.3100216265432982;;;;;;;;;;;;;;;;;;;load_kwh
23;11;winter;;1465.0999999999997;1564.6600000000003;powerlaw;1334.2874763054263;True;0.6183863642473215;;;;;;;;;;;;;;;;;;;;;load_kwh
24;12;holidays;;630.3621645577373;109.75917596334173;johnsonsu;3114.0703923872215;True;-0.5817106629748179;1.0899416264903548;;;;;;;;;;;;;;;;;;;;load_kwh
25;12;not_winter;;2412.843427727991;705.12954359897;genextreme;4077.0961926820105;True;;;0.4774446658542277;;;;;;;;;;;;;;;;;;;load_kwh
26;12;vacation;;820.17449449835;2674.7289204981585;triang;2110.3804002995726;True;;;0.3171556934249958;;;;;;;;;;;;;;;;;;;load_kwh
27;12;winter;;1424.6399999922485;569.7923020404835;genhalflogistic;1330.7505984030624;True;;;0.3292546440422245;;;;;;;;;;;;;;;;;;;load_kwh
28;13;holidays;;638.4376571825305;110.17492647294537;johnsonsu;3103.373220209768;True;-0.5896566664544386;1.1082097351517894;;;;;;;;;;;;;;;;;;;;load_kwh
29;13;not_winter;;2760.2155647454038;713.8679258394463;pearson3;4119.828206585203;True;;;;;;;;;;;;;;;;;-0.7450018742789913;;;;;load_kwh
30;13;vacation;;716.086721580087;2897.291656228498;triang;2132.562058166409;True;;;0.2691524951397536;;;;;;;;;;;;;;;;;;;load_kwh
31;13;winter;;1415.0399999999997;1762.5600000000004;powerlaw;1363.7427921397095;True;0.6654037673858224;;;;;;;;;;;;;;;;;;;;;load_kwh
32;14;holidays;;661.6246991252851;99.37870561212438;johnsonsu;3111.4606690987257;True;-0.4947424792563492;1.0146775907955252;;;;;;;;;;;;;;;;;;;;load_kwh
33;14;not_winter;;2959.9896835690497;783.2599472833974;pearson3;4171.454342387231;True;;;;;;;;;;;;;;;;;-0.690925205420527;;;;;load_kwh
34;14;vacation;;727.9999999999999;94.738321271366;ncx2;2127.1721810621507;True;;;;;0.48614403081513413;;;;;;;;;;;12.017541509364557;;;;;;load_kwh
35;14;winter;;1504.3199999999997;2085.120000000001;powerlaw;1396.1664030443203;True;0.676562644017373;;;;;;;;;;;;;;;;;;;;;load_kwh
36;15;holidays;;651.2385217516885;105.26977315192389;johnsonsu;3115.8462358416436;True;-0.6098976090865875;1.0664273152769979;;;;;;;;;;;;;;;;;;;;load_kwh
37;15;not_winter;;2901.3791457754887;789.9305472959194;pearson3;4185.939563589507;True;;;;;;;;;;;;;;;;;-0.503947547627964;;;;;load_kwh
38;15;vacation;;634.8503421949331;3334.9016510844594;triang;2166.3846344509284;True;;;0.21222504644923945;;;;;;;;;;;;;;;;;;;load_kwh
39;15;winter;;1534.0799999999997;1997.7600000000007;powerlaw;1386.5136589436418;True;0.663424625285302;;;;;;;;;;;;;;;;;;;;;load_kwh
40;16;holidays;;643.6996604839037;107.77088529384403;johnsonsu;3092.226215759466;True;-0.6079073144124425;1.112953706050254;;;;;;;;;;;;;;;;;;;;load_kwh
41;16;not_winter;;2399.454200699744;765.8920660947801;genextreme;4155.559053418225;True;;;0.3652088139658157;;;;;;;;;;;;;;;;;;;load_kwh
42;16;vacation;;630.5693802125827;2948.8436816214016;triang;2132.2072001029273;True;;;0.18333647970475053;;;;;;;;;;;;;;;;;;;load_kwh
43;16;winter;;1462.2999999999997;1788.2600000000004;powerlaw;1365.118660035776;True;0.6563905729876787;;;;;;;;;;;;;;;;;;;;;load_kwh
44;17;holidays;;679.3791815044642;99.83128936247384;johnsonsu;3023.840609808505;True;-0.5398772500355302;1.1447729505834645;;;;;;;;;;;;;;;;;;;;load_kwh
45;17;not_winter;;2284.4549163894662;610.2503791483298;pearson3;4059.494847385669;True;;;;;;;;;;;;;;;;;-0.29972057423526066;;;;;load_kwh
46;17;vacation;;817.5858806983176;831.5884780086874;skewnorm;2071.6568682774496;True;7.886915069586323;;;;;;;;;;;;;;;;;;;;;load_kwh
47;17;winter;;1222.842194652909;450.5279692277485;maxwell;1310.9201345041552;True;;;;;;;;;;;;;;;;;;;;;;load_kwh
48;18;holidays;;855.5402270583804;167.19949102755507;johnsonsu;3069.6219010179702;True;0.05168094732186779;1.4655078684791025;;;;;;;;;;;;;;;;;;;;load_kwh
49;18;not_winter;;1939.9068467044413;545.4505268165178;genextreme;3945.618588076748;True;;;0.4869495846285084;;;;;;;;;;;;;;;;;;;load_kwh
50;18;vacation;;577.5110448557898;1873.4242795454315;triang;2009.275875310502;True;;;0.15729963486651982;;;;;;;;;;;;;;;;;;;load_kwh
51;18;winter;;1228.2403339333919;392.42251495821426;maxwell;1282.4587298999336;True;;;;;;;;;;;;;;;;;;;;;;load_kwh
52;6;holidays;;110.91217394099621;26.577494144698406;dgamma;2665.586122884214;True;1.910945423813021;;;;;;;;;;;;;;;;;;;;;load_kvarh
53;6;not_winter;;170.73303529937093;56.781225242125906;dweibull;2879.5871987615615;True;;;1.4257999649131556;;;;;;;;;;;;;;;;;;;load_kvarh
54;6;vacation;;59.794578743501035;63.13404875874443;rice;1491.1528009576527;True;;1.6392462786332351;;;;;;;;;;;;;;;;;;;;load_kvarh
55;6;winter;;14.268925934715277;192.53107406528477;powerlaw;959.8804345923747;True;1.5178645838408642;;;;;;;;;;;;;;;;;;;;;load_kvarh
56;7;holidays;;87.92994923315868;30.39112117004564;dgamma;2673.4920899327553;True;1.6316624629241803;;;;;;;;;;;;;;;;;;;;;load_kvarh
57;7;not_winter;;-30.52087762151741;554.7658677724978;triang;3195.59051991684;True;;;0.6221018589163197;;;;;;;;;;;;;;;;;;;load_kvarh
58;7;vacation;;23.51999938246273;249.27163830106326;genhalflogistic;1641.1543237787953;True;;;0.6012384269155282;;;;;;;;;;;;;;;;;;;load_kvarh
59;7;winter;;0.3442135627564782;109.64489124879512;rayleigh;1044.3666950538084;True;;;;;;;;;;;;;;;;;;;;;;load_kvarh
60;8;holidays;;85.5889050687675;53.3434686458376;nct;2741.62403304388;True;;;;;3.8624599448699857;;;;;;;;;;;0.25628953641444174;;;;;;load_kvarh
61;8;not_winter;;414.30999532647866;132.03176204053247;vonmises_line;3424.5577081749784;True;;;;;;;;;;;0.7310024726623043;;;;;;;;;;;load_kvarh
62;8;vacation;;68.6399999999814;306.4040132557157;genhalflogistic;1752.492216587856;True;;;0.47090174567368837;;;;;;;;;;;;;;;;;;;load_kvarh
63;8;winter;;30.904024453076822;163.87792735183038;rayleigh;1114.8769916311508;True;;;;;;;;;;;;;;;;;;;;;;load_kvarh
64;9;holidays;;88.1557306347763;82.0089174501696;johnsonsu;2804.423560042465;True;-0.4518117296858797;1.340425832404794;;;;;;;;;;;;;;;;;;;;load_kvarh
65;9;not_winter;;531.9600219187382;160.31359999551546;vonmises_line;3535.7464125526158;True;;;;;;;;;;;0.6602363429929223;;;;;;;;;;;load_kvarh
66;9;vacation;;97.4388985090178;349.040114221551;genhalflogistic;1807.1690439607673;True;;;0.4253345727135136;;;;;;;;;;;;;;;;;;;load_kvarh
67;9;winter;;68.63999999999996;18.536734597830957;ncx2;1108.928980657013;True;;;;;0.34359524043851886;;;;;;;;;;;12.86641415941494;;;;;;load_kvarh
68;10;holidays;;65.39990990867693;61.05837341235915;nct;2835.360934796779;True;;;;;3.6311832401849258;;;;;;;;;;;0.9508494653178174;;;;;;load_kvarh
69;10;not_winter;;581.7900067645688;175.86939929598998;vonmises_line;3584.315859866754;True;;;;;;;;;;;0.6565734038938353;;;;;;;;;;;load_kvarh
70;10;vacation;;106.0799973543843;32.56437465927446;ncx2;1814.2986309606886;True;;;;;0.10304741350059307;;;;;;;;;;;10.813625866995352;;;;;;load_kvarh
71;10;winter;;73.96515980758006;222.01303567428423;rayleigh;1173.8280005237082;True;;;;;;;;;;;;;;;;;;;;;;load_kvarh
72;11;holidays;;96.87953758815624;92.1976630358414;johnsonsu;2849.7982066818768;True;-0.5919825517691006;1.3877522421817474;;;;;;;;;;;;;;;;;;;;load_kvarh
73;11;not_winter;;2.9021561224168764;1192.9600471186777;triang;3582.1194214975885;True;;;0.41642454420184416;;;;;;;;;;;;;;;;;;;load_kvarh
74;11;vacation;;92.9370395249511;932.3618664440515;triang;1832.5022048078322;True;;;0.23238076145370773;;;;;;;;;;;;;;;;;;;load_kvarh
75;11;winter;;88.63801267331445;692.8975777598057;triang;1176.543280810881;True;;;0.16787760710969402;;;;;;;;;;;;;;;;;;;load_kvarh
76;12;holidays;;92.74281361051654;97.88227074938214;johnsonsu;2837.3392312085994;True;-0.7320364036696128;1.503313804368871;;;;;;;;;;;;;;;;;;;;load_kvarh
77;12;not_winter;;3.226530788907634;1133.665616485473;triang;3549.289154928422;True;;;0.4446932693405362;;;;;;;;;;;;;;;;;;;load_kvarh
78;12;vacation;;84.0083128473055;925.3747274024859;triang;1821.1090336827397;True;;;0.24237930916821382;;;;;;;;;;;;;;;;;;;load_kvarh
79;12;winter;;85.85109014303804;215.4747108763612;rayleigh;1166.3028354935707;True;;;;;;;;;;;;;;;;;;;;;;load_kvarh
80;13;holidays;;91.30256773386918;92.19846226475774;johnsonsu;2819.9995067936534;True;-0.8528107158482097;1.5097104360818996;;;;;;;;;;;;;;;;;;;;load_kvarh
81;13;not_winter;;-1.943688454112488;1286.2825048874442;triang;3598.3621586242625;True;;;0.42567918507518443;;;;;;;;;;;;;;;;;;;load_kvarh
82;13;vacation;;72.6033274733981;297.4718972697967;rayleigh;1825.246010404912;True;;;;;;;;;;;;;;;;;;;;;;load_kvarh
83;13;winter;;83.0751997210053;765.539315202477;triang;1193.5919799065791;True;;;0.1968348291056666;;;;;;;;;;;;;;;;;;;load_kvarh
84;14;holidays;;94.32086057609119;84.50656531163644;johnsonsu;2824.144150366434;True;-0.8967778957340473;1.4303262399690717;;;;;;;;;;;;;;;;;;;;load_kvarh
85;14;not_winter;;12.8231382392866;1380.308091374786;triang;3644.3613013405247;True;;;0.39931437424114247;;;;;;;;;;;;;;;;;;;load_kvarh
86;14;vacation;;102.24;38.4672716392804;ncx2;1796.719523307687;True;;;;;0.5368093496811318;;;;;;;;;;;9.494656600756283;;;;;;load_kvarh
87;14;winter;;85.37504787892837;883.2369628326111;triang;1222.5180231899658;True;;;0.21039082368885187;;;;;;;;;;;;;;;;;;;load_kvarh
88;15;holidays;;103.51722829208593;87.42848933800296;johnsonsu;2826.5370224051567;True;-0.8491593836767097;1.4440655168567882;;;;;;;;;;;;;;;;;;;;load_kvarh
89;15;not_winter;;18.469191448636614;1374.0524679540465;triang;3646.2236136960173;True;;;0.36767941569545143;;;;;;;;;;;;;;;;;;;load_kvarh
90;15;vacation;;320.13697037097324;104.50645038539587;moyal;1838.361069535661;True;;;;;;;;;;;;;;;;;;;;;;load_kvarh
91;15;winter;;95.68003876027748;869.0897133311964;triang;1217.9714426918133;True;;;0.2019583922654978;;;;;;;;;;;;;;;;;;;load_kvarh
92;16;holidays;;113.20416834657459;93.72809339773309;johnsonsu;2821.209822935035;True;-0.6887599331974075;1.4825434385125043;;;;;;;;;;;;;;;;;;;;load_kvarh
93;16;not_winter;;22.86562565164897;1267.4894337298988;triang;3598.8209784569335;True;;;0.32468465874138464;;;;;;;;;;;;;;;;;;;load_kvarh
94;16;vacation;;289.95980272038173;93.52482643277631;moyal;1808.0230948071498;True;;;;;;;;;;;;;;;;;;;;;;load_kvarh
95;16;winter;;113.39976813126152;753.0321640219241;triang;1192.2004416700304;True;;;0.14326112086699183;;;;;;;;;;;;;;;;;;;load_kvarh
96;17;holidays;;156.03918546732555;103.13447391392312;johnsonsu;2805.014607626973;True;-0.2962257070123666;1.5559554085648433;;;;;;;;;;;;;;;;;;;;load_kvarh
97;17;not_winter;;48.13909188889211;1033.1124878408136;triang;3488.118773905377;True;;;0.35343770635341654;;;;;;;;;;;;;;;;;;;load_kvarh
98;17;vacation;;264.5137180973817;73.08520233129232;moyal;1746.4573101348583;True;;;;;;;;;;;;;;;;;;;;;;load_kvarh
99;17;winter;;114.98787628692591;170.20469268377673;maxwell;1131.7215905780336;True;;;;;;;;;;;;;;;;;;;;;;load_kvarh
100;18;holidays;;229.25856995035915;165.97996225240047;vonmises_line;2827.481062233466;True;;;;;;;;;;;4.46750442727387;;;;;;;;;;;load_kvarh
101;18;not_winter;;506.80177514918427;546.3251480780978;anglit;3420.6295846385397;True;;;;;;;;;;;;;;;;;;;;;;load_kvarh
102;18;vacation;;109.56062692329826;576.8827155435147;triang;1686.8649048650948;True;;;0.17202694856551234;;;;;;;;;;;;;;;;;;;load_kvarh
103;18;winter;;427.08198481127846;93.65271265607029;cosine;1120.8473943835616;True;;;;;;;;;;;;;;;;;;;;;;load_kvarh
