;hour;cluster;loc;scale;density;aic;ks_approved;a;b;variable
0;6;not_summer;-1.792865441620387e-15;1.8705793953353194e-15;johnsonsu;-5080.586728844641;False;-0.7183895272976525;0.07038181114295085;gen_energy_kwh
1;6;summer;-0.00684841459730455;0.0011999148435724246;johnsonsu;-129.85524738319208;True;-5.031842530480567;0.9126975950525731;gen_energy_kwh
2;7;not_summer;0.09038376328501757;0.13324088555378147;johnsonsu;1494.7951773273826;True;-2.4751599009654432;0.9648031555753307;gen_energy_kwh
3;7;summer;1.2352863084051182;1.5490195171977383;johnsonsu;539.044072372531;True;-1.054407902868199;1.8371094029589439;gen_energy_kwh
4;8;not_summer;-0.11876187791845189;1.539902559824269;johnsonsu;2608.8377223215225;True;-3.3496858701646843;1.8792414474920234;gen_energy_kwh
5;8;summer;8.220440517095465;2.5322561137445376;johnsonsu;811.0514114426157;True;0.49628404232348833;1.3894490960460377;gen_energy_kwh
6;9;not_summer;-13.47583132991647;6.423736129684505;johnsonsu;3129.2964381817183;True;-11.568219208061198;5.827892201924733;gen_energy_kwh
7;9;summer;18.559977565579118;3.9239080947772926;johnsonsu;1004.9123490847786;True;1.9624444111377635;1.7383115285606772;gen_energy_kwh
8;10;not_summer;-41.70615727669308;20.836666246690612;johnsonsu;3363.257192629591;True;-19.31393706577886;11.479978826692532;gen_energy_kwh
9;10;summer;27.991379815863876;8.200680397996774;johnsonsu;1119.581544786751;True;2.8479490289698135;2.5279223011404817;gen_energy_kwh
10;11;not_summer;107.37661107682095;88.5708518624667;johnsonsu;3588.4350086756945;True;18.573983389016014;20.54203323819557;gen_energy_kwh
11;11;summer;24.18251272729268;6.463054853043473;johnsonsu;1189.8056016490525;True;0.85550601151317;1.346515264125411;gen_energy_kwh
12;12;not_summer;64.7259228992396;14.763350780081776;johnsonsu;3632.4979683783504;True;14.6272999409329;7.745902184977444;gen_energy_kwh
13;12;summer;27.59146886538887;4.818575474131775;johnsonsu;1149.6445561527175;True;1.452684289647405;1.391590877770485;gen_energy_kwh
14;13;not_summer;-180644442.53114387;146225012.73567188;johnsonsu;3528.755038387296;True;-41133967.06173529;39611628.451429546;gen_energy_kwh
15;13;summer;26.55688524745535;3.3868403797852418;johnsonsu;1181.587671773466;True;1.0405935523171599;0.9993160653078973;gen_energy_kwh
16;14;not_summer;11.718735273847567;30.01402799959053;johnsonsu;3514.283964813437;True;-0.41097467673018184;5.28629791827969;gen_energy_kwh
17;14;summer;25.11411436717038;1.688538556493191;johnsonsu;1178.6571346974913;True;1.0515836926534157;0.7447146652512524;gen_energy_kwh
18;15;not_summer;-36.48945382827554;24.132369900841184;johnsonsu;3217.8454534673306;True;-16.82508511017337;11.89153110157963;gen_energy_kwh
19;15;summer;21.04192694556218;1.569676567287214;johnsonsu;1123.083196195185;True;0.9969952813723102;0.755800929442492;gen_energy_kwh
20;16;not_summer;-4.750703334136121;1.3559772365047857;johnsonsu;2733.784557463364;True;-10.33422500911515;3.75082347106341;gen_energy_kwh
21;16;summer;15.549025109563846;1.3858127922143626;johnsonsu;1042.092534320653;True;1.1401424830658464;0.8276142371992311;gen_energy_kwh
22;17;not_summer;-0.1536555199480933;0.4145103631316638;johnsonsu;1694.3418372121464;True;-4.077419183372557;1.8065979200607214;gen_energy_kwh
23;17;summer;7.341456048513313;2.8124210395834517;johnsonsu;839.8067361757569;True;0.7643010164140392;1.469733688435529;gen_energy_kwh
24;18;not_summer;-0.004579545168743291;0.0004398132359086735;johnsonsu;-435.1690423521834;True;-5.213442655406347;0.8152133074512555;gen_energy_kwh
25;18;summer;-3.338752399483356;1.9634923000125575;johnsonsu;398.58284812614966;True;-11.02674547153438;6.9044170197899675;gen_energy_kwh
