{
    "2014-08-07 00:00:00":
    {
	"erex": 0.19841,
	"peak": 1.14954,
	"off_peak": 0.2204
    },
    "2015-03-02 00:00:00":
    {
	"erex": 0.23044,
	"peak": 1.24966,
	"off_peak": 0.30331
    },
    "2015-08-07 00:00:00":
    {
	"erex": 0.24481,
	"peak": 1.27149,
	"off_peak": 0.31785
    },
    "2016-08-07 00:00:00":
    {
	"erex": 0.23361,
	"peak": 1.49866,
	"off_peak": 0.29581
    },
    "2017-08-07 00:00:00":
    {
	"erex": 0.26467,
	"peak": 1.6056,
	"off_peak": 0.30827
    },
    "2018-08-07 00:00:00":
    {
	"erex": 0.30331,
	"peak": 1.7616,
	"off_peak": 0.37029
    },
    "2019-08-07 00:00:00":
    {
	"erex": 0.25141,
	"peak": 1.40252,
	"off_peak": 0.32115
    },
    "2020-08-07 00:00:00":
    {
	"erex": 0.26292,
	"peak": 1.48417,
	"off_peak": 0.34051
    },
    "2021-08-07 00:00:00":
    {
	"erex": 0.27926,
	"peak": 1.73795,
	"off_peak": 0.34886
    },
    "2022-08-07 00:00:00":
    {
	"erex": 0.27703,
	"peak": 1.66260,
	"off_peak": 0.39824
    },
    "2023-08-07 00:00:00":
    {
	"erex": 0.30560,
	"peak": 1.72586,
	"off_peak": 0.41158
    }
}
