{
    "JA Solar JAM60S01-315/PR":
    {
	"efficiency": 0.193,
	"power_kw": 0.315,
	"area_m2": 1.48678,
	"ptc": 0.380,
	"operation_temperature_celsius": 48.4,
	"NOCT_celsius": 45.0,
	"std_temperature_celsius": 25
    },
    "JA Solar JAM60S01-310/PR":
    {
	"efficiency": 0.190,
	"power_kw": 0.310,
	"area_m2": 1.48678,
	"ptc": 0.380,
	"operation_temperature_celsius": 48.4,
	"NOCT_celsius": 45.0,
	"std_temperature_celsius": 25
    }
}
