;aic;aic;density;density;ks_approved;ks_approved;variable
approach;best;single;best;single;best;single;
0;1801.8675005602154;1804.8146473915715;norm;beta;True;True;temperature_celsius
1;1801.8675005602154;1804.7819949971977;norm;beta;True;True;temperature_celsius
2;1925.8756444828846;1929.619499077029;triang;beta;True;True;temperature_celsius
3;1793.554834271266;1799.4201004749648;triang;beta;True;True;temperature_celsius
4;5638.570659614561;5641.475376565482;norm;beta;True;True;e_kj_per_m2
5;5923.903064956079;5926.838782937777;norm;beta;True;True;e_kj_per_m2
6;5942.9417067878385;5944.156396850957;triang;beta;True;True;e_kj_per_m2
7;5963.022254581504;5963.022254581504;beta;beta;True;True;e_kj_per_m2
